<svg
   width="512"
   height="512"
   viewBox="0 0 512 512"
   version="1.1"
   id="svg1"
   xml:space="preserve"
   inkscape:version="1.3 (0e150ed6c4, 2023-07-21)"
   sodipodi:docname="icon.svg"
   xmlns:inkscape="http://www.inkscape.org/namespaces/inkscape"
   xmlns:sodipodi="http://sodipodi.sourceforge.net/DTD/sodipodi-0.dtd"
   xmlns:xlink="http://www.w3.org/1999/xlink"
   xmlns="http://www.w3.org/2000/svg"
   xmlns:svg="http://www.w3.org/2000/svg"><sodipodi:namedview
     id="namedview1"
     pagecolor="#ffffff"
     bordercolor="#000000"
     borderopacity="0.25"
     inkscape:showpageshadow="2"
     inkscape:pageopacity="0.0"
     inkscape:pagecheckerboard="0"
     inkscape:deskcolor="#d1d1d1"
     inkscape:document-units="px"
     inkscape:zoom="1.8144531"
     inkscape:cx="189.58881"
     inkscape:cy="222.10549"
     inkscape:window-width="1924"
     inkscape:window-height="1260"
     inkscape:window-x="1916"
     inkscape:window-y="0"
     inkscape:window-maximized="0"
     inkscape:current-layer="layer1" /><defs
     id="defs1"><linearGradient
       id="linearGradient3"
       inkscape:collect="always"><stop
         style="stop-color:#19def9;stop-opacity:1;"
         offset="0"
         id="stop3" /><stop
         style="stop-color:#ff00ab;stop-opacity:1;"
         offset="0.57421577"
         id="stop5" /><stop
         style="stop-color:#175b85;stop-opacity:1;"
         offset="1"
         id="stop4" /></linearGradient><rect
       x="105.26588"
       y="171.40151"
       width="321.08847"
       height="146.82111"
       id="rect2" /><linearGradient
       id="linearGradient1"
       inkscape:collect="always"><stop
         style="stop-color:#d632ad;stop-opacity:1;"
         offset="0"
         id="stop1" /><stop
         style="stop-color:#ea90d8;stop-opacity:1;"
         offset="1"
         id="stop2" /></linearGradient><rect
       x="117.30209"
       y="201.86871"
       width="285.50007"
       height="148.01109"
       id="rect3" /><rect
       x="52.577822"
       y="95.786439"
       width="354.81763"
       height="323.07255"
       id="rect1" /><linearGradient
       inkscape:collect="always"
       xlink:href="#linearGradient1"
       id="linearGradient2"
       x1="102.27367"
       y1="253.66591"
       x2="410.53113"
       y2="253.66591"
       gradientUnits="userSpaceOnUse" /><linearGradient
       inkscape:collect="always"
       xlink:href="#linearGradient3"
       id="linearGradient4"
       x1="106.32163"
       y1="179.54053"
       x2="133.44034"
       y2="179.54053"
       gradientUnits="userSpaceOnUse" /><rect
       x="105.26588"
       y="171.4015"
       width="321.08847"
       height="146.82111"
       id="rect2-6" /><linearGradient
       inkscape:collect="always"
       xlink:href="#linearGradient3"
       id="linearGradient6"
       gradientUnits="userSpaceOnUse"
       x1="106.32163"
       y1="179.54053"
       x2="133.44034"
       y2="179.54053" /><filter
       inkscape:collect="always"
       style="color-interpolation-filters:sRGB"
       id="filter6"
       x="-0.036585931"
       y="-0.091663077"
       width="1.0731719"
       height="1.1833262"><feGaussianBlur
         inkscape:collect="always"
         stdDeviation="0.41340142"
         id="feGaussianBlur6" /></filter></defs><g
     inkscape:label="Layer 1"
     inkscape:groupmode="layer"
     id="layer1"><g
       id="g3"
       transform="matrix(1.2072207,0,0,1.2072207,-46.041696,-48.374876)"><path
         style="fill:url(#linearGradient2);fill-opacity:1;fill-rule:evenodd;stroke:#3e3e3e;stroke-width:7.68127982;stroke-opacity:1;paint-order:stroke markers fill;stroke-dasharray:none"
         d="M 407.4489,447.90637 104.26095,450.0935 103.71421,59.421217 311.7629,57.234101 409.08922,152.37333 Z"
         id="path2" /><path
         style="fill:#bbbbbb;fill-opacity:1;fill-rule:evenodd;stroke:none;stroke-width:2.87709;stroke-opacity:0.255749;paint-order:stroke markers fill"
         d="m 309.30239,57.780883 -0.27337,89.124677 99.78683,4.64761 z"
         id="path3" /></g><text
       xml:space="preserve"
       id="text2"
       style="font-size:14.6667px;font-family:'Noto Sans';-inkscape-font-specification:'Noto Sans, Normal';white-space:pre;shape-inside:url(#rect2);display:inline;fill:url(#linearGradient4);fill-rule:evenodd;stroke:none;stroke-width:0.710465;stroke-dasharray:none;stroke-opacity:1;paint-order:stroke markers fill"
       transform="matrix(9.5331961,0,0,9.5331961,-888.05123,-1441.8599)"><tspan
         x="105.26562"
         y="184.74721"
         id="tspan3">.SPL</tspan></text><text
       xml:space="preserve"
       id="text2-6"
       style="font-size:14.6667px;font-family:'Noto Sans';-inkscape-font-specification:'Noto Sans, Normal';white-space:pre;shape-inside:url(#rect2-6);display:inline;mix-blend-mode:normal;fill:url(#linearGradient6);fill-rule:evenodd;stroke:none;stroke-width:0.710465;stroke-dasharray:none;stroke-opacity:1;paint-order:stroke markers fill;filter:url(#filter6)"
       transform="matrix(10.022001,0,0,10.022001,-941.28124,-1526.5185)"><tspan
         x="105.26562"
         y="184.74721"
         id="tspan4">.SPL</tspan></text></g></svg>
